{
  "project_info": {
    "project_number": "79850230505",
    "firebase_url": "https://fluttercoursedemo.firebaseio.com",
    "project_id": "fluttercoursedemo",
    "storage_bucket": "fluttercoursedemo.appspot.com"
  },
  "client": [
    {
      "client_info": {
        "mobilesdk_app_id": "1:79850230505:android:e09d03aafb1bd859f69678",
        "android_client_info": {
          "package_name": "com.example.tp_3"
        }
      },
      "oauth_client": [
        {
          "client_id": "79850230505-gckm166g8071lcco3a5r0fvfnn1smnv9.apps.googleusercontent.com",
          "client_type": 3
        }
      ],
      "api_key": [
        {
          "current_key": "AIzaSyDknCKLGJ3F2e98fRWyccBHnZIaY16UGUg"
        }
      ],
      "services": {
        "appinvite_service": {
          "other_platform_oauth_client": [
            {
              "client_id": "79850230505-gckm166g8071lcco3a5r0fvfnn1smnv9.apps.googleusercontent.com",
              "client_type": 3
            }
          ]
        }
      }
    }
  ],
  "configuration_version": "1"
}